Final_design_vivado_dump/convAccProject/AxisMFifo/AxisMFifo.sim/sim_1/behav/xsim/dump.vcd
$date
   Sun Apr 12 14:36:48 2026
$end

$version
  2025.2
$end

$timescale
  1ps
$end

$scope module tb $end
$var reg 1 ! clk $end
$scope module vif $end
$var wire 1 " clk $end
$var reg 1 # arstn $end
$var reg 32 $ wr_data [31:0] $end
$var reg 1 % wr_last $end
$var reg 1 & wr_en $end
$var reg 32 ' M_TDATA [31:0] $end
$var reg 1 ( M_TVALID $end
$var reg 1 ) M_TLAST $end
$var reg 1 * M_TREADY $end
$var reg 1 + full $end
$var reg 1 , empty $end
$var reg 1 - almost_full $end
$scope module drv_cb $end
$var reg 32 . M_TDATA [31:0] $end
$var reg 1 / M_TVALID $end
$var reg 1 0 M_TLAST $end
$var reg 1 1 full $end
$var reg 1 2 empty $end
$var reg 1 3 almost_full $end
$var reg 1 4 M_TREADY $end
$var reg 1 5 arstn $end
$var reg 1 6 wr_en $end
$var reg 1 7 wr_last $end
$var reg 32 8 wr_data [31:0] $end
$upscope $end
$upscope $end
$scope module dut $end
$var wire 1 9 clk $end
$var wire 1 : arstn $end
$var wire 32 ; wr_data [31:0] $end
$var wire 1 < wr_last $end
$var wire 1 = wr_en $end
$var reg 32 > M_TDATA [31:0] $end
$var reg 1 ? M_TVALID $end
$var reg 1 @ M_TLAST $end
$var wire 1 A M_TREADY $end
$var reg 1 B full $end
$var reg 1 C empty $end
$var reg 1 D almost_full $end
$var reg 9 E wr_ptr [8:0] $end
$var reg 9 F rd_ptr [8:0] $end
$var reg 9 G fill_level [8:0] $end
$var reg 1 H bram_rd_en $end
$var reg 32 I bram_dout [31:0] $end
$var reg 1 J bram_dlast $end
$var reg 1 K bram_dvalid $end
$var reg 32 L pipe_data [31:0] $end
$var reg 1 M pipe_last $end
$var reg 1 N pipe_valid $end
$upscope $end
$scope task reset $end
$upscope $end
$scope task drive $end
$scope begin Block74_29 $end
$var reg 32 O i [31:0] $end
$upscope $end
$upscope $end
$scope task read $end
$var reg 32 P idx [31:0] $end
$var reg 32 Q errors [31:0] $end
$upscope $end
$upscope $end
$enddefinitions $end

#0
$dumpvars
0!
0"
0#
b0 $
0%
0&
bx '
x(
x)
x*
x+
x,
x-
bx .
x/
x0
x1
x2
x3
x4
x5
x6
x7
bx 8
09
0:
b0 ;
0<
0=
bx >
x?
x@
xA
xB
xC
xD
bx E
bx F
bx G
xH
bx I
xJ
xK
bx L
xM
xN
b0 O
b0 P
b0 Q
$end

#5000
1!
1"
b0 '
0(
0)
0+
1,
0-
19
b0 >
0?
0@
0B
1C
0D
b0 E
b0 F
b0 G
0H
0K
b0 L
0M
0N

#10000
0!
0"
09

#15000
1!
1"
1#
b0 .
0/
00
01
12
03
19
1:

#20000
0!
0"
09

#25000
1!
1"
14
19

#26000
1*
1A

#30000
0!
0"
09

#35000
1!
1"
b11100101001011111111000111001 $
1&
19
b11100101001011111111000111001 ;
1=
b1 O

#40000
0!
0"
09

#45000
1!
1"
b10001001010111010110101010000111 $
0,
19
b10001001010111010110101010000111 ;
0C
b1 E
b1 G
1H
b10 O

#50000
0!
0"
09

#55000
1!
1"
b11101010000001101011111000010110 $
02
19
b11101010000001101011111000010110 ;
b10 E
b1 F
b11100101001011111111000111001 I
0J
1K
b11 O

#60000
0!
0"
09

#65000
1!
1"
b11100001000001100101101111101110 $
b11100101001011111111000111001 '
1(
19
b11100001000001100101101111101110 ;
b11100101001011111111000111001 >
1?
b11 E
b10 F
1H
b10001001010111010110101010000111 I
b11100101001011111111000111001 L
1N
b100 O

#70000
0!
0"
09

#75000
1!
1"
b11011000110010010001101000110 $
b10001001010111010110101010000111 '
b11100101001011111111000111001 .
1/
19
b11011000110010010001101000110 ;
b10001001010111010110101010000111 >
b100 E
b11 F
b11101010000001101011111000010110 I
b10001001010111010110101010000111 L
b101 O

#80000
0!
0"
09

#85000
1!
1"
b11101110111110110110100001111111 $
b11101010000001101011111000010110 '
b10001001010111010110101010000111 .
19
b11101110111110110110100001111111 ;
b11101010000001101011111000010110 >
b101 E
b100 F
b11100001000001100101101111101110 I
b11101010000001101011111000010110 L
b110 O
b1 P

#90000
0!
0"
09

#95000
1!
1"
b101011001111001100010001111111 $
b11100001000001100101101111101110 '
b11101010000001101011111000010110 .
19
b101011001111001100010001111111 ;
b11100001000001100101101111101110 >
b110 E
b101 F
b11011000110010010001101000110 I
b11100001000001100101101111101110 L
b111 O
b10 P

#100000
0!
0"
09

#105000
1!
1"
b110111101111110010000101111111 $
b11011000110010010001101000110 '
b11100001000001100101101111101110 .
19
b110111101111110010000101111111 ;
b11011000110010010001101000110 >
b111 E
b110 F
b11101110111110110110100001111111 I
b11011000110010010001101000110 L
b1000 O
b11 P

#110000
0!
0"
09

#115000
1!
1"
b11111000010110001101001100000111 $
b11101110111110110110100001111111 '
b11011000110010010001101000110 .
19
b11111000010110001101001100000111 ;
b11101110111110110110100001111111 >
b1000 E
b111 F
b101011001111001100010001111111 I
b11101110111110110110100001111111 L
b1001 O
b100 P

#120000
0!
0"
09

#125000
1!
1"
b10010101010000111000001010010101 $
b101011001111001100010001111111 '
b11101110111110110110100001111111 .
19
b10010101010000111000001010010101 ;
b101011001111001100010001111111 >
b1001 E
b1000 F
b110111101111110010000101111111 I
b101011001111001100010001111111 L
b1010 O
b101 P

#130000
0!
0"
09

#135000
1!
1"
b11000110001010111110101101101 $
b110111101111110010000101111111 '
b101011001111001100010001111111 .
19
b11000110001010111110101101101 ;
b110111101111110010000101111111 >
b1010 E
b1001 F
b11111000010110001101001100000111 I
b110111101111110010000101111111 L
b1011 O
b110 P

#140000
0!
0"
09

#145000
1!
1"
b10011011100011111011001001101 $
b11111000010110001101001100000111 '
b110111101111110010000101111111 .
19
b10011011100011111011001001101 ;
b11111000010110001101001100000111 >
b1011 E
b1010 F
b10010101010000111000001010010101 I
b11111000010110001101001100000111 L
b1100 O
b111 P

#150000
0!
0"
09

#155000
1!
1"
b100001111101110101100010101 $
b10010101010000111000001010010101 '
b11111000010110001101001100000111 .
19
b100001111101110101100010101 ;
b10010101010000111000001010010101 >
b1100 E
b1011 F
b11000110001010111110101101101 I
b10010101010000111000001010010101 L
b1101 O
b1000 P

#160000
0!
0"
09

#165000
1!
1"
b11000100000000100100000111101100 $
b11000110001010111110101101101 '
b10010101010000111000001010010101 .
19
b11000100000000100100000111101100 ;
b11000110001010111110101101101 >
b1101 E
b1100 F
b10011011100011111011001001101 I
b11000110001010111110101101101 L
b1110 O
b1001 P

#170000
0!
0"
09

#175000
1!
1"
b11001011001100010001011111001100 $
b10011011100011111011001001101 '
b11000110001010111110101101101 .
19
b11001011001100010001011111001100 ;
b10011011100011111011001001101 >
b1110 E
b1101 F
b100001111101110101100010101 I
b10011011100011111011001001101 L
b1111 O
b1010 P

#180000
0!
0"
09

#185000
1!
1"
b11111100100101111011111000011100 $
b100001111101110101100010101 '
b10011011100011111011001001101 .
19
b11111100100101111011111000011100 ;
b100001111101110101100010101 >
b1111 E
b1110 F
b11000100000000100100000111101100 I
b100001111101110101100010101 L
b10000 O
b1011 P

#190000
0!
0"
09

#195000
1!
1"
b11011001010001011100010010000001 $
b11000100000000100100000111101100 '
b100001111101110101100010101 .
19
b11011001010001011100010010000001 ;
b11000100000000100100000111101100 >
b10000 E
b1111 F
b11001011001100010001011111001100 I
b11000100000000100100000111101100 L
b10001 O
b1100 P

#200000
0!
0"
09

#205000
1!
1"
b11100011111101101001010100111001 $
b11001011001100010001011111001100 '
b11000100000000100100000111101100 .
19
b11100011111101101001010100111001 ;
b11001011001100010001011111001100 >
b10001 E
b10000 F
b11111100100101111011111000011100 I
b11001011001100010001011111001100 L
b10010 O
b1101 P

#210000
0!
0"
09

#215000
1!
1"
b10000000010011011010001101001 $
b11111100100101111011111000011100 '
b11001011001100010001011111001100 .
19
b10000000010011011010001101001 ;
b11111100100101111011111000011100 >
b10010 E
b10001 F
b11011001010001011100010010000001 I
b11111100100101111011111000011100 L
b10011 O
b1110 P

#220000
0!
0"
09

#225000
1!
1"
b11011101100001001010111110010110 $
b11011001010001011100010010000001 '
b11111100100101111011111000011100 .
19
b11011101100001001010111110010110 ;
b11011001010001011100010010000001 >
b10011 E
b10010 F
b11100011111101101001010100111001 I
b11011001010001011100010010000001 L
b10100 O
b1111 P

#230000
0!
0"
09

#235000
1!
1"
b100111111110001101011100100101 $
b11100011111101101001010100111001 '
b11011001010001011100010010000001 .
19
b100111111110001101011100100101 ;
b11100011111101101001010100111001 >
b10100 E
b10011 F
b10000000010011011010001101001 I
b11100011111101101001010100111001 L
b10101 O
b10000 P

#240000
0!
0"
09

#245000
1!
1"
b11011011001110101100110000110101 $
b10000000010011011010001101001 '
b11100011111101101001010100111001 .
19
b11011011001110101100110000110101 ;
b10000000010011011010001101001 >
b10101 E
b10100 F
b11011101100001001010111110010110 I
b10000000010011011010001101001 L
b10110 O
b10001 P

#250000
0!
0"
09

#255000
1!
1"
b11011010000111000110110110110010 $
b11011101100001001010111110010110 '
b10000000010011011010001101001 .
19
b11011010000111000110110110110010 ;
b11011101100001001010111110010110 >
b10110 E
b10101 F
b100111111110001101011100100101 I
b11011101100001001010111110010110 L
b10111 O
b10010 P

#260000
0!
0"
09

#265000
1!
1"
b10000001001111101001101110100110 $
b100111111110001101011100100101 '
b11011101100001001010111110010110 .
19
b10000001001111101001101110100110 ;
b100111111110001101011100100101 >
b10111 E
b10110 F
b11011011001110101100110000110101 I
b100111111110001101011100100101 L
b11000 O
b10011 P

#270000
0!
0"
09

#275000
1!
1"
b111111001100010110000101101110 $
b11011011001110101100110000110101 '
b100111111110001101011100100101 .
19
b111111001100010110000101101110 ;
b11011011001110101100110000110101 >
b11000 E
b10111 F
b11011010000111000110110110110010 I
b11011011001110101100110000110101 L
b11001 O
b10100 P

#280000
0!
0"
09

#285000
1!
1"
b11101010001001100010001000011011 $
b11011010000111000110110110110010 '
b11011011001110101100110000110101 .
19
b11101010001001100010001000011011 ;
b11011010000111000110110110110010 >
b11001 E
b11000 F
b10000001001111101001101110100110 I
b11011010000111000110110110110010 L
b11010 O
b10101 P

#290000
0!
0"
09

#295000
1!
1"
b11011110110000110100101100111101 $
b10000001001111101001101110100110 '
b11011010000111000110110110110010 .
19
b11011110110000110100101100111101 ;
b10000001001111101001101110100110 >
b11010 E
b11001 F
b111111001100010110000101101110 I
b10000001001111101001101110100110 L
b11011 O
b10110 P

#300000
0!
0"
09

#305000
1!
1"
b11100111001010100011100010010011 $
b111111001100010110000101101110 '
b10000001001111101001101110100110 .
19
b11100111001010100011100010010011 ;
b111111001100010110000101101110 >
b11011 E
b11010 F
b11101010001001100010001000011011 I
b111111001100010110000101101110 L
b11100 O
b10111 P

#310000
0!
0"
09

#315000
1!
1"
b11000101011000001110111001010000 $
b11101010001001100010001000011011 '
b111111001100010110000101101110 .
19
b11000101011000001110111001010000 ;
b11101010001001100010001000011011 >
b11100 E
b11011 F
b11011110110000110100101100111101 I
b11101010001001100010001000011011 L
b11101 O
b11000 P

#320000
0!
0"
09

#325000
1!
1"
b10111000110111111011100011101111 $
b11011110110000110100101100111101 '
b11101010001001100010001000011011 .
19
b10111000110111111011100011101111 ;
b11011110110000110100101100111101 >
b11101 E
b11100 F
b11100111001010100011100010010011 I
b11011110110000110100101100111101 L
b11110 O
b11001 P

#330000
0!
0"
09

#335000
1!
1"
b11101000011010001101010000111001 $
b11100111001010100011100010010011 '
b11011110110000110100101100111101 .
19
b11101000011010001101010000111001 ;
b11100111001010100011100010010011 >
b11110 E
b11101 F
b11000101011000001110111001010000 I
b11100111001010100011100010010011 L
b11111 O
b11010 P

#340000
0!
0"
09

#345000
1!
1"
b10000100100100100100111110111110 $
b11000101011000001110111001010000 '
b11100111001010100011100010010011 .
19
b10000100100100100100111110111110 ;
b11000101011000001110111001010000 >
b11111 E
b11110 F
b10111000110111111011100011101111 I
b11000101011000001110111001010000 L
b100000 O
b11011 P

#350000
0!
0"
09

#355000
1!
1"
b100011000001011101101100001011 $
b10111000110111111011100011101111 '
b11000101011000001110111001010000 .
19
b100011000001011101101100001011 ;
b10111000110111111011100011101111 >
b100000 E
b11111 F
b11101000011010001101010000111001 I
b10111000110111111011100011101111 L
b100001 O
b11100 P

#360000
0!
0"
09

#365000
1!
1"
b11000111001011000001111101110110 $
b11101000011010001101010000111001 '
b10111000110111111011100011101111 .
19
b11000111001011000001111101110110 ;
b11101000011010001101010000111001 >
b100001 E
b100000 F
b10000100100100100100111110111110 I
b11101000011010001101010000111001 L
b100010 O
b11101 P

#370000
0!
0"
09

#375000
1!
1"
b11101011101111001000100001010001 $
b10000100100100100100111110111110 '
b11101000011010001101010000111001 .
19
b11101011101111001000100001010001 ;
b10000100100100100100111110111110 >
b100010 E
b100001 F
b100011000001011101101100001011 I
b10000100100100100100111110111110 L
b100011 O
b11110 P

#380000
0!
0"
09

#385000
1!
1"
b11101000011001101100100101011011 $
b100011000001011101101100001011 '
b10000100100100100100111110111110 .
19
b11101000011001101100100101011011 ;
b100011000001011101101100001011 >
b100011 E
b100010 F
b11000111001011000001111101110110 I
b100011000001011101101100001011 L
b100100 O
b11111 P

#390000
0!
0"
09

#395000
1!
1"
b10111101100001100110 $
b11000111001011000001111101110110 '
b100011000001011101101100001011 .
19
b10111101100001100110 ;
b11000111001011000001111101110110 >
b100100 E
b100011 F
b11101011101111001000100001010001 I
b11000111001011000001111101110110 L
b100101 O
b100000 P

#400000
0!
0"
09

#405000
1!
1"
b11010100001001010101110010001011 $
b11101011101111001000100001010001 '
b11000111001011000001111101110110 .
19
b11010100001001010101110010001011 ;
b11101011101111001000100001010001 >
b100101 E
b100100 F
b11101000011001101100100101011011 I
b11101011101111001000100001010001 L
b100110 O
b100001 P

#410000
0!
0"
09

#415000
1!
1"
b11101100111110010001100100011010 $
b11101000011001101100100101011011 '
b11101011101111001000100001010001 .
19
b11101100111110010001100100011010 ;
b11101000011001101100100101011011 >
b100110 E
b100101 F
b10111101100001100110 I
b11101000011001101100100101011011 L
b100111 O
b100010 P

#420000
0!
0"
09

#425000
1!
1"
b100011000100011011001101110001 $
b10111101100001100110 '
b11101000011001101100100101011011 .
19
b100011000100011011001101110001 ;
b10111101100001100110 >
b100111 E
b100110 F
b11010100001001010101110010001011 I
b10111101100001100110 L
b101000 O
b100011 P

#430000
0!
0"
09

#435000
1!
1"
b10011011010100010111110000000001 $
b11010100001001010101110010001011 '
b10111101100001100110 .
19
b10011011010100010111110000000001 ;
b11010100001001010101110010001011 >
b101000 E
b100111 F
b11101100111110010001100100011010 I
b11010100001001010101110010001011 L
b101001 O
b100100 P

#440000
0!
0"
09

#445000
1!
1"
b11011000101101011010000101101011 $
b11101100111110010001100100011010 '
b11010100001001010101110010001011 .
19
b11011000101101011010000101101011 ;
b11101100111110010001100100011010 >
b101001 E
b101000 F
b100011000100011011001101110001 I
b11101100111110010001100100011010 L
b101010 O
b100101 P

#450000
0!
0"
09

#455000
1!
1"
b10001011011110000111110011001100 $
b100011000100011011001101110001 '
b11101100111110010001100100011010 .
19
b10001011011110000111110011001100 ;
b100011000100011011001101110001 >
b101010 E
b101001 F
b10011011010100010111110000000001 I
b100011000100011011001101110001 L
b101011 O
b100110 P

#460000
0!
0"
09

#465000
1!
1"
b10011011010111010101010001100111 $
b10011011010100010111110000000001 '
b100011000100011011001101110001 .
19
b10011011010111010101010001100111 ;
b10011011010100010111110000000001 >
b101011 E
b101010 F
b11011000101101011010000101101011 I
b10011011010100010111110000000001 L
b101100 O
b100111 P

#470000
0!
0"
09

#475000
1!
1"
b10101100110110101111110111110110 $
b11011000101101011010000101101011 '
b10011011010100010111110000000001 .
19
b10101100110110101111110111110110 ;
b11011000101101011010000101101011 >
b101100 E
b101011 F
b10001011011110000111110011001100 I
b11011000101101011010000101101011 L
b101101 O
b101000 P

#480000
0!
0"
09

#485000
1!
1"
b11111000011100011001010111100110 $
b10001011011110000111110011001100 '
b11011000101101011010000101101011 .
19
b11111000011100011001010111100110 ;
b10001011011110000111110011001100 >
b101101 E
b101100 F
b10011011010111010101010001100111 I
b10001011011110000111110011001100 L
b101110 O
b101001 P

#490000
0!
0"
09

#495000
1!
1"
b10111110011011110000011111011000 $
b10011011010111010101010001100111 '
b10001011011110000111110011001100 .
19
b10111110011011110000011111011000 ;
b10011011010111010101010001100111 >
b101110 E
b101101 F
b10101100110110101111110111110110 I
b10011011010111010101010001100111 L
b101111 O
b101010 P

#500000
0!
0"
09

#505000
1!
1"
b11001000001011000111100111111000 $
b10101100110110101111110111110110 '
b10011011010111010101010001100111 .
19
b11001000001011000111100111111000 ;
b10101100110110101111110111110110 >
b101111 E
b101110 F
b11111000011100011001010111100110 I
b10101100110110101111110111110110 L
b110000 O
b101011 P

#510000
0!
0"
09

#515000
1!
1"
b11010001001001110011011101010010 $
b11111000011100011001010111100110 '
b10101100110110101111110111110110 .
19
b11010001001001110011011101010010 ;
b11111000011100011001010111100110 >
b110000 E
b101111 F
b10111110011011110000011111011000 I
b11111000011100011001010111100110 L
b110001 O
b101100 P

#520000
0!
0"
09

#525000
1!
1"
b11001001111001111000010010100101 $
b10111110011011110000011111011000 '
b11111000011100011001010111100110 .
19
b11001001111001111000010010100101 ;
b10111110011011110000011111011000 >
b110001 E
b110000 F
b11001000001011000111100111111000 I
b10111110011011110000011111011000 L
b110010 O
b101101 P

#530000
0!
0"
09

#535000
1!
1"
b11100011100010011100111001011111 $
b11001000001011000111100111111000 '
b10111110011011110000011111011000 .
19
b11100011100010011100111001011111 ;
b11001000001011000111100111111000 >
b110010 E
b110001 F
b11010001001001110011011101010010 I
b11001000001011000111100111111000 L
b110011 O
b101110 P

#540000
0!
0"
09

#545000
1!
1"
b11111110000000100011010101001000 $
b11010001001001110011011101010010 '
b11001000001011000111100111111000 .
19
b11111110000000100011010101001000 ;
b11010001001001110011011101010010 >
b110011 E
b110010 F
b11001001111001111000010010100101 I
b11010001001001110011011101010010 L
b110100 O
b101111 P

#550000
0!
0"
09

#555000
1!
1"
b11000010010110010001101010001011 $
b11001001111001111000010010100101 '
b11010001001001110011011101010010 .
19
b11000010010110010001101010001011 ;
b11001001111001111000010010100101 >
b110100 E
b110011 F
b11100011100010011100111001011111 I
b11001001111001111000010010100101 L
b110101 O
b110000 P

#560000
0!
0"
09

#565000
1!
1"
b100001111110001101011000111000 $
b11100011100010011100111001011111 '
b11001001111001111000010010100101 .
19
b100001111110001101011000111000 ;
b11100011100010011100111001011111 >
b110101 E
b110100 F
b11111110000000100011010101001000 I
b11100011100010011100111001011111 L
b110110 O
b110001 P

#570000
0!
0"
09

#575000
1!
1"
b11000110001011101010111101000000 $
b11111110000000100011010101001000 '
b11100011100010011100111001011111 .
19
b11000110001011101010111101000000 ;
b11111110000000100011010101001000 >
b110110 E
b110101 F
b11000010010110010001101010001011 I
b11111110000000100011010101001000 L
b110111 O
b110010 P

#580000
0!
0"
09

#585000
1!
1"
b10010011100000000101000111011101 $
b11000010010110010001101010001011 '
b11111110000000100011010101001000 .
19
b10010011100000000101000111011101 ;
b11000010010110010001101010001011 >
b110111 E
b110110 F
b100001111110001101011000111000 I
b11000010010110010001101010001011 L
b111000 O
b110011 P

#590000
0!
0"
09

#595000
1!
1"
b11101011111000000101101011011101 $
b100001111110001101011000111000 '
b11000010010110010001101010001011 .
19
b11101011111000000101101011011101 ;
b100001111110001101011000111000 >
b111000 E
b110111 F
b11000110001011101010111101000000 I
b100001111110001101011000111000 L
b111001 O
b110100 P

#600000
0!
0"
09

#605000
1!
1"
b101001101110000111110110100000 $
b11000110001011101010111101000000 '
b100001111110001101011000111000 .
19
b101001101110000111110110100000 ;
b11000110001011101010111101000000 >
b111001 E
b111000 F
b10010011100000000101000111011101 I
b11000110001011101010111101000000 L
b111010 O
b110101 P

#610000
0!
0"
09

#615000
1!
1"
b10001100000101000011100100110 $
b10010011100000000101000111011101 '
b11000110001011101010111101000000 .
19
b10001100000101000011100100110 ;
b10010011100000000101000111011101 >
b111010 E
b111001 F
b11101011111000000101101011011101 I
b10010011100000000101000111011101 L
b111011 O
b110110 P

#620000
0!
0"
09

#625000
1!
1"
b10101110001110010111010101101000 $
b11101011111000000101101011011101 '
b10010011100000000101000111011101 .
19
b10101110001110010111010101101000 ;
b11101011111000000101101011011101 >
b111011 E
b111010 F
b101001101110000111110110100000 I
b11101011111000000101101011011101 L
b111100 O
b110111 P

#630000
0!
0"
09

#635000
1!
1"
b11001011101100010101001111011000 $
b101001101110000111110110100000 '
b11101011111000000101101011011101 .
19
b11001011101100010101001111011000 ;
b101001101110000111110110100000 >
b111100 E
b111011 F
b10001100000101000011100100110 I
b101001101110000111110110100000 L
b111101 O
b111000 P

#640000
0!
0"
09

#645000
1!
1"
b11010111101100010011011001100110 $
b10001100000101000011100100110 '
b101001101110000111110110100000 .
19
b11010111101100010011011001100110 ;
b10001100000101000011100100110 >
b111101 E
b111100 F
b10101110001110010111010101101000 I
b10001100000101000011100100110 L
b111110 O
b111001 P

#650000
0!
0"
09

#655000
1!
1"
b11000001101110011100011101000110 $
b10101110001110010111010101101000 '
b10001100000101000011100100110 .
19
b11000001101110011100011101000110 ;
b10101110001110010111010101101000 >
b111110 E
b111101 F
b11001011101100010101001111011000 I
b10101110001110010111010101101000 L
b111111 O
b111010 P

#660000
0!
0"
09

#665000
1!
1"
b110111100100011010111010110101 $
b11001011101100010101001111011000 '
b10101110001110010111010101101000 .
19
b110111100100011010111010110101 ;
b11001011101100010101001111011000 >
b111111 E
b111110 F
b11010111101100010011011001100110 I
b11001011101100010101001111011000 L
b1000000 O
b111011 P

#670000
0!
0"
09

#675000
1!
1"
b10000001011010011011010000000110 $
b11010111101100010011011001100110 '
b11001011101100010101001111011000 .
19
b10000001011010011011010000000110 ;
b11010111101100010011011001100110 >
b1000000 E
b111111 F
b11000001101110011100011101000110 I
b11010111101100010011011001100110 L
b1000001 O
b111100 P

#680000
0!
0"
09

#685000
1!
1"
b11010011001111000100111001101100 $
b11000001101110011100011101000110 '
b11010111101100010011011001100110 .
19
b11010011001111000100111001101100 ;
b11000001101110011100011101000110 >
b1000001 E
b1000000 F
b110111100100011010111010110101 I
b11000001101110011100011101000110 L
b1000010 O
b111101 P

#690000
0!
0"
09

#695000
1!
1"
b11100101110010110010010000011101 $
b110111100100011010111010110101 '
b11000001101110011100011101000110 .
19
b11100101110010110010010000011101 ;
b110111100100011010111010110101 >
b1000010 E
b1000001 F
b10000001011010011011010000000110 I
b110111100100011010111010110101 L
b1000011 O
b111110 P

#700000
0!
0"
09

#705000
1!
1"
b11001101000110110000011111011110 $
b10000001011010011011010000000110 '
b110111100100011010111010110101 .
19
b11001101000110110000011111011110 ;
b10000001011010011011010000000110 >
b1000011 E
b1000010 F
b11010011001111000100111001101100 I
b10000001011010011011010000000110 L
b1000100 O
b111111 P

#710000
0!
0"
09

#715000
1!
1"
b10101010111011011000010011010010 $
b11010011001111000100111001101100 '
b10000001011010011011010000000110 .
19
b10101010111011011000010011010010 ;
b11010011001111000100111001101100 >
b1000100 E
b1000011 F
b11100101110010110010010000011101 I
b11010011001111000100111001101100 L
b1000101 O
b1000000 P

#720000
0!
0"
09

#725000
1!
1"
b10100111100001001110101101100011 $
b11100101110010110010010000011101 '
b11010011001111000100111001101100 .
19
b10100111100001001110101101100011 ;
b11100101110010110010010000011101 >
b1000101 E
b1000100 F
b11001101000110110000011111011110 I
b11100101110010110010010000011101 L
b1000110 O
b1000001 P

#730000
0!
0"
09

#735000
1!
1"
b10000100101011001011011010010011 $
b11001101000110110000011111011110 '
b11100101110010110010010000011101 .
19
b10000100101011001011011010010011 ;
b11001101000110110000011111011110 >
b1000110 E
b1000101 F
b10101010111011011000010011010010 I
b11001101000110110000011111011110 L
b1000111 O
b1000010 P

#740000
0!
0"
09

#745000
1!
1"
b101100010101110011100011011001 $
b10101010111011011000010011010010 '
b11001101000110110000011111011110 .
19
b101100010101110011100011011001 ;
b10101010111011011000010011010010 >
b1000111 E
b1000110 F
b10100111100001001110101101100011 I
b10101010111011011000010011010010 L
b1001000 O
b1000011 P

#750000
0!
0"
09

#755000
1!
1"
b11111010110000010011100111001111 $
b10100111100001001110101101100011 '
b10101010111011011000010011010010 .
19
b11111010110000010011100111001111 ;
b10100111100001001110101101100011 >
b1001000 E
b1000111 F
b10000100101011001011011010010011 I
b10100111100001001110101101100011 L
b1001001 O
b1000100 P

#760000
0!
0"
09

#765000
1!
1"
b11101010011101111101101010110001 $
b10000100101011001011011010010011 '
b10100111100001001110101101100011 .
19
b11101010011101111101101010110001 ;
b10000100101011001011011010010011 >
b1001001 E
b1001000 F
b101100010101110011100011011001 I
b10000100101011001011011010010011 L
b1001010 O
b1000101 P

#770000
0!
0"
09

#775000
1!
1"
b11111001011100100100000010110111 $
b101100010101110011100011011001 '
b10000100101011001011011010010011 .
19
b11111001011100100100000010110111 ;
b101100010101110011100011011001 >
b1001010 E
b1001001 F
b11111010110000010011100111001111 I
b101100010101110011100011011001 L
b1001011 O
b1000110 P

#780000
0!
0"
09

#785000
1!
1"
b100101101011101011111010100010 $
b11111010110000010011100111001111 '
b101100010101110011100011011001 .
19
b100101101011101011111010100010 ;
b11111010110000010011100111001111 >
b1001011 E
b1001010 F
b11101010011101111101101010110001 I
b11111010110000010011100111001111 L
b1001100 O
b1000111 P

#790000
0!
0"
09

#795000
1!
1"
b10010001111111001100011000010100 $
b11101010011101111101101010110001 '
b11111010110000010011100111001111 .
19
b10010001111111001100011000010100 ;
b11101010011101111101101010110001 >
b1001100 E
b1001011 F
b11111001011100100100000010110111 I
b11101010011101111101101010110001 L
b1001101 O
b1001000 P

#800000
0!
0"
09

#805000
1!
1"
b11111110000111101111011101001011 $
b11111001011100100100000010110111 '
b11101010011101111101101010110001 .
19
b11111110000111101111011101001011 ;
b11111001011100100100000010110111 >
b1001101 E
b1001100 F
b100101101011101011111010100010 I
b11111001011100100100000010110111 L
b1001110 O
b1001001 P

#810000
0!
0"
09

#815000
1!
1"
b11010010000001011111011101111011 $
b100101101011101011111010100010 '
b11111001011100100100000010110111 .
19
b11010010000001011111011101111011 ;
b100101101011101011111010100010 >
b1001110 E
b1001101 F
b10010001111111001100011000010100 I
b100101101011101011111010100010 L
b1001111 O
b1001010 P

#820000
0!
0"
09

#825000
1!
1"
b1100101111011111111111100100 $
b10010001111111001100011000010100 '
b100101101011101011111010100010 .
19
b1100101111011111111111100100 ;
b10010001111111001100011000010100 >
b1001111 E
b1001110 F
b11111110000111101111011101001011 I
b10010001111111001100011000010100 L
b1010000 O
b1001011 P

#830000
0!
0"
09

#835000
1!
1"
b11101000100101101101000111111100 $
b11111110000111101111011101001011 '
b10010001111111001100011000010100 .
19
b11101000100101101101000111111100 ;
b11111110000111101111011101001011 >
b1010000 E
b1001111 F
b11010010000001011111011101111011 I
b11111110000111101111011101001011 L
b1010001 O
b1001100 P

#840000
0!
0"
09

#845000
1!
1"
b11001011011110000011100000110010 $
b11010010000001011111011101111011 '
b11111110000111101111011101001011 .
19
b11001011011110000011100000110010 ;
b11010010000001011111011101111011 >
b1010001 E
b1010000 F
b1100101111011111111111100100 I
b11010010000001011111011101111011 L
b1010010 O
b1001101 P

#850000
0!
0"
09

#855000
1!
1"
b110010011011001011111010000110 $
b1100101111011111111111100100 '
b11010010000001011111011101111011 .
19
b110010011011001011111010000110 ;
b1100101111011111111111100100 >
b1010010 E
b1010001 F
b11101000100101101101000111111100 I
b1100101111011111111111100100 L
b1010011 O
b1001110 P

#860000
0!
0"
09

#865000
1!
1"
b11111010100100111001100000010000 $
b11101000100101101101000111111100 '
b1100101111011111111111100100 .
19
b11111010100100111001100000010000 ;
b11101000100101101101000111111100 >
b1010011 E
b1010010 F
b11001011011110000011100000110010 I
b11101000100101101101000111111100 L
b1010100 O
b1001111 P

#870000
0!
0"
09

#875000
1!
1"
b11001001100101110010111101111101 $
b11001011011110000011100000110010 '
b11101000100101101101000111111100 .
19
b11001001100101110010111101111101 ;
b11001011011110000011100000110010 >
b1010100 E
b1010011 F
b110010011011001011111010000110 I
b11001011011110000011100000110010 L
b1010101 O
b1010000 P

#880000
0!
0"
09

#885000
1!
1"
b100011100101011011000000001 $
b110010011011001011111010000110 '
b11001011011110000011100000110010 .
19
b100011100101011011000000001 ;
b110010011011001011111010000110 >
b1010101 E
b1010100 F
b11111010100100111001100000010000 I
b110010011011001011111010000110 L
b1010110 O
b1010001 P

#890000
0!
0"
09

#895000
1!
1"
b10000111010100011001011111110100 $
b11111010100100111001100000010000 '
b110010011011001011111010000110 .
19
b10000111010100011001011111110100 ;
b11111010100100111001100000010000 >
b1010110 E
b1010101 F
b11001001100101110010111101111101 I
b11111010100100111001100000010000 L
b1010111 O
b1010010 P

#900000
0!
0"
09

#905000
1!
1"
b10110010001011100000000101111001 $
b11001001100101110010111101111101 '
b11111010100100111001100000010000 .
19
b10110010001011100000000101111001 ;
b11001001100101110010111101111101 >
b1010111 E
b1010110 F
b100011100101011011000000001 I
b11001001100101110010111101111101 L
b1011000 O
b1010011 P

#910000
0!
0"
09

#915000
1!
1"
b11001111111010101110111000110011 $
b100011100101011011000000001 '
b11001001100101110010111101111101 .
19
b11001111111010101110111000110011 ;
b100011100101011011000000001 >
b1011000 E
b1010111 F
b10000111010100011001011111110100 I
b100011100101011011000000001 L
b1011001 O
b1010100 P

#920000
0!
0"
09

#925000
1!
1"
b10111001101111100101011001111010 $
b10000111010100011001011111110100 '
b100011100101011011000000001 .
19
b10111001101111100101011001111010 ;
b10000111010100011001011111110100 >
b1011001 E
b1011000 F
b10110010001011100000000101111001 I
b10000111010100011001011111110100 L
b1011010 O
b1010101 P

#930000
0!
0"
09

