Final_design_vivado_dump/convAccProject/lineBuffer/lineBuffer.sim/sim_1/behav/xsim/dump.vcd
$date
   Sun Apr 12 21:06:30 2026
$end

$version
  2025.2
  $dumpfile ("dump.vcd") 
$end

$timescale
  1ps
$end

$scope module line_buffer_tb $end
$var reg 1 ! clk $end
$scope module vif $end
$var wire 1 " clk $end
$var reg 1 # arstn $end
$var reg 32 $ px_data [31:0] $end
$var reg 1 % px_valid $end
$var reg 1 & px_last $end
$var reg 1 ' px_ready $end
$var reg 1 ( frame_start $end
$var reg 6 ) col_idx [5:0] $end
$var reg 1 * row_done $end
$var reg 1 + buf_ready $end
$var reg 2 , write_lane [1:0] $end
$var reg 2 - base_lane [1:0] $end
$var reg 8 . p00 [7:0] $end
$var reg 8 / p01 [7:0] $end
$var reg 8 0 p02 [7:0] $end
$var reg 8 1 p10 [7:0] $end
$var reg 8 2 p11 [7:0] $end
$var reg 8 3 p12 [7:0] $end
$var reg 8 4 p20 [7:0] $end
$var reg 8 5 p21 [7:0] $end
$var reg 8 6 p22 [7:0] $end
$scope module drv $end
$var reg 1 7 px_ready $end
$var reg 1 8 buf_ready $end
$var reg 2 9 write_lane [1:0] $end
$var reg 2 : base_lane [1:0] $end
$var reg 1 ; row_done $end
$var reg 6 < col_idx [5:0] $end
$var reg 1 = frame_start $end
$var reg 1 > px_last $end
$var reg 1 ? px_valid $end
$var reg 32 @ px_data [31:0] $end
$var reg 1 A arstn $end
$upscope $end
$upscope $end
$scope module dut $end
$var wire 1 B clk $end
$var wire 1 C arstn $end
$var wire 32 D px_data [31:0] $end
$var wire 1 E px_valid $end
$var wire 1 F px_last $end
$var reg 1 G px_ready $end
$var wire 1 H frame_start $end
$var wire 6 I col_idx [5:0] $end
$var wire 6 J row_width [5:0] $end
$var wire 1 K row_done $end
$var reg 1 L buf_ready $end
$var reg 2 M write_lane [1:0] $end
$var reg 2 N base_lane [1:0] $end
$var reg 8 O p00 [7:0] $end
$var reg 8 P p01 [7:0] $end
$var reg 8 Q p02 [7:0] $end
$var reg 8 R p10 [7:0] $end
$var reg 8 S p11 [7:0] $end
$var reg 8 T p12 [7:0] $end
$var reg 8 U p20 [7:0] $end
$var reg 8 V p21 [7:0] $end
$var reg 8 W p22 [7:0] $end
$var reg 3 X wr_ptr [2:0] $end
$var reg 3 Y rows_loaded [2:0] $end
$var reg 1 Z scan_complete $end
$var reg 1 [ row_filled $end
$var reg 1 \ lane_switched $end
$var reg 2 ] lane0 [1:0] $end
$var reg 2 ^ lane1 [1:0] $end
$var reg 2 _ lane2 [1:0] $end
$upscope $end
$scope task reset $end
$upscope $end
$scope task write_row $end
$scope begin Block65_31 $end
$upscope $end
$upscope $end
$scope task dump_lanes $end
$upscope $end
$upscope $end
$enddefinitions $end

#0
$dumpvars
0!
0"
x#
bx $
x%
x&
x'
x(
bx )
x*
x+
bx ,
bx -
bx .
bx /
bx 0
bx 1
bx 2
bx 3
bx 4
bx 5
bx 6
x7
x8
bx 9
bx :
0;
b0 <
0=
0>
0?
b0 @
0A
0B
xC
bx D
xE
xF
xG
xH
bx I
bz J
xK
xL
bx M
bx N
bx O
bx P
bx Q
bx R
bx S
bx T
bx U
bx V
bx W
bx X
bx Y
xZ
x[
x\
bx ]
bx ^
bx _
$end

#5000
1!
1"
1B

#6000
0#
b0 $
0%
0&
0'
0(
b0 )
0*
0C
b0 D
0E
0F
0G
0H
b0 I
0K
0[
0\

#10000
0!
0"
0B

#15000
1!
1"
0+
b0 ,
b0 -
07
1B
0L
b0 M
b0 N
b0 X
b0 Y
b0 ]
b1 ^
b10 _

#20000
0!
0"
0B

#25000
1!
1"
08
b0 9
b0 :
1A
1B

#26000
1#
1'
1C
1G

#30000
0!
0"
0B

#35000
1!
1"
17
1B

#40000
0!
0"
0B

#45000
1!
1"
1?
b100000000110000001000000001 @
1B

#46000
b100000000110000001000000001 $
1%
b100000000110000001000000001 D
1E

#50000
0!
0"
0B

#55000
1!
1"
b1 .
b10 /
b11 0
1>
b1000000001110000011000000101 @
1B
b1 O
b10 P
b11 Q
b100 X

#56000
b1000000001110000011000000101 $
1&
b1000000001110000011000000101 D
1F
1[

#60000
0!
0"
0B

#65000
1!
1"
b1 ,
0>
0?
1B
b1 M
b0 X
b1 Y

#66000
0%
0&
0E
0F
0[

#70000
0!
0"
0B

#75000
1!
1"
b1 9
1B

#80000
0!
0"
0B

#85000
1!
1"
1?
b1100000010110000101000001001 @
1B

#86000
b1100000010110000101000001001 $
1%
b1100000010110000101000001001 D
1E

#90000
0!
0"
0B

#95000
1!
1"
b1001 1
b1010 2
b1011 3
1>
b10000000011110000111000001101 @
1B
b1001 R
b1010 S
b1011 T
b100 X

#96000
b10000000011110000111000001101 $
1&
b10000000011110000111000001101 D
1F
1[

#100000
0!
0"
0B

#105000
1!
1"
b10 ,
0>
0?
1B
b10 M
b0 X
b10 Y

#106000
0%
0&
0E
0F
0[

#110000
0!
0"
0B

#115000
1!
1"
b10 9
1B

#120000
0!
0"
0B

#125000
1!
1"
1?
b10100000100110001001000010001 @
1B

#126000
b10100000100110001001000010001 $
1%
b10100000100110001001000010001 D
1E

#130000
0!
0"
0B

#135000
1!
1"
b10001 4
b10010 5
b10011 6
1>
b11000000101110001011000010101 @
1B
b10001 U
b10010 V
b10011 W
b100 X

#136000
b11000000101110001011000010101 $
1&
b11000000101110001011000010101 D
1F
1[

#140000
0!
0"
0B

#145000
1!
1"
1+
b11 ,
0>
0?
1B
1L
b11 M
b0 X
b11 Y

#146000
0%
0&
0E
0F
0[

#150000
0!
0"
0B

#155000
1!
1"
18
b11 9
1B

#160000
0!
0"
0B

#165000
1!
1"
1?
b11100000110110001101000011001 @
1B

#166000
b11100000110110001101000011001 $
1%
b11100000110110001101000011001 D
1E

#170000
0!
0"
0B

#175000
1!
1"
1>
b100000000111110001111000011101 @
1B
b100 X

#176000
b100000000111110001111000011101 $
1&
b100000000111110001111000011101 D
1F
1[

#180000
0!
0"
0B

#185000
1!
1"
b0 ,
0>
0?
1B
b0 M
b0 X
b100 Y

#186000
0%
0&
0E
0F
0[

#190000
0!
0"
0B

#195000
1!
1"
b0 9
1B

#200000
0!
0"
0B

#205000
1!
1"
1;
1B

#206000
1*
1K
x\

#210000
0!
0"
0B

#215000
1!
1"
0;
1B

#216000
0*
0K
0\

#220000
0!
0"
0B

#225000
1!
1"
1B

#230000
0!
0"
0B

#235000
1!
1"
1?
b100100001000110010001000100001 @
1B

#236000
b100100001000110010001000100001 $
1%
b100100001000110010001000100001 D
1E

#240000
0!
0"
0B

#245000
1!
1"
b100001 .
b100010 /
b100011 0
1>
b101000001001110010011000100101 @
1B
b100001 O
b100010 P
b100011 Q
b100 X

#246000
b101000001001110010011000100101 $
1&
b101000001001110010011000100101 D
1F
1[

#250000
0!
0"
0B

#255000
1!
1"
b1 ,
0>
0?
1B
b1 M
b0 X
b101 Y

#256000
0%
0&
0E
0F
0[

#260000
0!
0"
0B

#265000
1!
1"
b1 9
1B

